<?xml version="1.0" standalone="no"?>
<!DOCTYPE svg PUBLIC "-//W3C//DTD SVG 1.1//EN" "http://www.w3.org/Graphics/SVG/1.1/DTD/svg11.dtd">
<svg xmlns="http://www.w3.org/2000/svg">
<metadata>Copyright (C) 2014 by original authors @ fontello.com</metadata>
<defs>
<font id="fontello" horiz-adv-x="1000" >
<font-face font-family="fontello" font-weight="400" font-stretch="normal" units-per-em="1000" ascent="850" descent="-150" />
<missing-glyph horiz-adv-x="1000" />
<glyph glyph-name="mail" unicode="&#xe800;" d="m0 11v607q0 37 26 63t63 26h822q37 0 63-26t26-63v-607q0-37-26-63t-63-27h-822q-36 0-63 27t-26 63z m71 0q0-8 6-13t12-5h822q7 0 12 5t6 13v428q-18-20-39-37-149-114-238-188-28-24-46-38t-48-27-57-13h-2q-26 0-57 13t-48 27-46 38q-88 74-238 188-21 17-39 37v-428z m0 607q0-94 82-159 108-84 224-176 4-3 20-17t25-21 25-17 28-16 24-5h2q11 0 24 5t28 16 25 17 25 21 20 17q116 92 224 176 30 24 56 65t26 73v14t-1 7-1 7-3 5-5 4-8 2h-822q-7 0-12-6t-6-12z" horiz-adv-x="1000" />
<glyph glyph-name="mobile" unicode="&#xe801;" d="m0 64v572q0 29 21 50t50 21h286q29 0 50-21t22-50v-572q0-29-22-50t-50-21h-286q-29 0-50 21t-21 50z m54 90q0-8 5-13t12-5h286q7 0 13 5t5 13v392q0 8-5 13t-13 5h-286q-7 0-12-5t-5-13v-392z m107 473q0-9 9-9h89q9 0 9 9t-9 9h-89q-9 0-9-9z m9-563q0-18 13-31t31-13 32 13 13 31-13 32-32 13-31-13-13-32z" horiz-adv-x="428.6" />
<glyph glyph-name="enseignement" unicode="&#xe802;" d="m0 564q0 13 12 18l625 196q3 1 6 1t5-1l625-196q13-5 13-18t-13-17l-625-196q-2-1-5-1t-6 1l-364 115q-24-19-39-63t-19-99q35-20 35-61 0-39-32-60l32-241q1-8-4-14-5-7-14-7h-107q-8 0-13 7-6 6-5 14l33 241q-33 21-33 60 0 41 36 62 7 115 55 184l-186 58q-12 4-12 17z m286-357l10 176 320-101q12-3 27-3t27 3l320 101 10-176q2-38-46-71t-131-52-180-20-180 20-131 52-46 71z" horiz-adv-x="1285.7" />
<glyph glyph-name="github" unicode="&#xe803;" d="m0 270q0 132 76 221-15 45-15 94 0 65 28 122 61 0 106-22t106-69q82 20 172 20 83 0 156-18 59 46 105 67t105 22q29-57 29-122 0-48-15-93 76-90 76-222 0-116-34-185-22-43-59-74t-79-48-95-27-96-12-93-3q-43 0-79 2t-82 7-85 17-77 28-67 46-48 64q-35 69-35 185z m125-99q0-49 18-85t45-58 68-33 78-17 83-4h94q46 0 83 4t78 17 69 33 45 58 18 85q0 67-39 114t-104 47q-23 0-109-12-40-6-88-6t-87 6q-85 12-109 12-66 0-104-47t-39-114z m89 0q0 23 7 46t24 43 41 19 40-19 24-43 7-46-7-45-24-43-40-19-41 19-24 43-7 45z m357 0q0 23 7 46t24 43 41 19 40-19 24-43 7-46-7-45-24-43-40-19-41 19-24 43-7 45z" horiz-adv-x="928.6" />
<glyph glyph-name="media" unicode="&#xe804;" d="m0 64v500q0 59 42 101t101 42h125l28 76q11 27 39 47t58 20h286q29 0 57-20t39-47l29-76h125q59 0 101-42t41-101v-500q0-59-41-101t-101-42h-786q-59 0-101 42t-42 101z m286 250q0-103 73-176t177-74 176 74 74 176-74 177-176 73-177-73-73-177z m89 0q0 67 47 114t114 47 113-47 47-114-47-113-113-47-114 47-47 113z" horiz-adv-x="1071.4" />
<glyph glyph-name="bday" unicode="&#xe805;" d="m0 296v179q0 8 5 13t13 5h245q-51 0-88 36t-37 89 37 88 88 37q60 0 94-43l72-92 71 92q34 43 94 43 52 0 88-37t37-88-37-89-88-36h245q8 0 13-5t5-13v-179q0-7-5-12t-13-6h-53v-232q0-22-16-38t-38-15h-607q-22 0-38 15t-16 38v232h-53q-8 0-13 6t-5 12z m210 322q0-22 15-38t38-16h109l-70 90q-15 17-39 17-22 0-38-15t-15-38z m129-525q0-14 10-21t26-8h107q16 0 26 8t10 21v400h-179v-400z m147 471h108q22 0 38 16t15 38-15 38-38 15q-24 0-39-17z" horiz-adv-x="857.1" />
<glyph glyph-name="lieu" unicode="&#xe806;" d="m0 493q0 118 84 202t202 84 202-84 83-202q0-61-18-100l-203-432q-9-18-27-29t-37-11-38 11-26 29l-204 432q-18 39-18 100z m143 0q0-59 42-101t101-42 101 42 42 101-42 101-101 42-101-42-42-101z" horiz-adv-x="571.4" />
<glyph glyph-name="code" unicode="&#xe807;" d="m25 314q0 8 6 13l260 260q5 6 13 6t12-6l28-28q6-5 6-13t-6-12l-219-220 219-219q6-6 6-13t-6-13l-28-28q-5-5-12-5t-13 5l-260 260q-6 6-6 13z m372-350l208 720q3 8 9 11t13 2l35-10q7-2 11-9t1-13l-208-721q-2-7-9-11t-13-1l-34 9q-8 3-11 9t-2 14z m325 118q0 7 5 13l219 219-219 220q-5 5-5 12t5 13l28 28q6 6 13 6t13-6l260-260q5-5 5-13t-5-13l-260-260q-6-5-13-5t-13 5l-28 28q-5 6-5 13z" horiz-adv-x="1071.4" />
<glyph glyph-name="couple" unicode="&#xe808;" d="m903 186c0 32-25 68-25 68s-3-13-18-7c-14 7-27 26-31 42-1 15-14 43-19 49-5 10-1 30 23 33 0 0-9 18-2 27 0 0-25-1-13 21 0 0-52 18-9 59 0 0-28 29 5 34 0 0-48 54 16 76 0 0-57 141 48 148 55 7 92-27 142-48 0 0 69 56 108 49 68-14 88-81 48-140 43 11 58-55 24-80 0 0 20-23 0-48 0 0 30-42-7-60 0 0-7-25-15-36 0 0 16 3 21-10 6-15 9-27-4-47-12-19-15-32-20-43-4-10-7-41-35-24-37-46-50-120-25-185l6-11c87-17 192-36 242-57l0-58-700 0 0 3-663 0s5 62 58 88c53 27 255 84 270 90l1 47 20 5s6 75 6 85c0 0-29 60-36 92 0 0-25 0-29 28-2 26 0 42-5 61-4 19 10 39 23 35 0 0-27 134 0 172 18 27 73 93 206 117 0 0 32 2 44-2 8-2 7-5-10-22 0 0 68-43 90-110 15-41 8-131 0-155 0 0 21 4 18-21-3-40-6-115-33-103 0 0-2-81-28-99 0 0-6-66 5-68l16 0s8-54 20-68c0 0 62-25 132-41 30-8 67-10 106-9 12 34 30 41 29 123z" horiz-adv-x="1363" />
<glyph glyph-name="website" unicode="&#xe809;" d="m900 750q42 0 71-30t29-70l0-600q0-42-29-71t-71-29l-800 0q-40 0-70 29t-30 71l0 600q0 40 30 70t70 30l800 0z m-670-94q-16 0-27-11t-11-25q0-16 11-27t27-11q38 0 38 38 0 16-11 26t-27 10z m-138-36q0-16 11-27t27-11q38 0 38 38 0 16-11 26t-27 10-27-11-11-25z m810-570l0 460-802 0 0-460 802 0z m0 540l0 60-602 0 0-60 602 0z" horiz-adv-x="1000" />
</font>
</defs>
</svg>